\contentsline {section}{\numberline {1}T\IeC {\'e}rminos}{1}
\contentsline {paragraph}{PROBE}{1}
\contentsline {paragraph}{Proxy}{1}
\contentsline {paragraph}{Test report}{1}
\contentsline {paragraph}{Base parts}{1}
\contentsline {paragraph}{Reused parts}{1}
\contentsline {paragraph}{Added parts}{1}
\contentsline {paragraph}{PROBE Method A}{1}
\contentsline {paragraph}{PROBE Method B}{1}
\contentsline {paragraph}{PROBE Method C}{1}
\contentsline {paragraph}{PROBE Method D}{1}
\contentsline {paragraph}{Linear Regression}{1}
\contentsline {paragraph}{Correlation Coefficient R}{1}
\contentsline {paragraph}{Correlation Coefficient R*R}{2}
