\relax 
\@writefile{toc}{\contentsline {section}{\numberline {1}T\IeC {\'e}rminos}{1}}
\@writefile{toc}{\contentsline {paragraph}{PROBE}{1}}
\@writefile{toc}{\contentsline {paragraph}{Proxy}{1}}
\@writefile{toc}{\contentsline {paragraph}{Test report}{1}}
\@writefile{toc}{\contentsline {paragraph}{Base parts}{1}}
\@writefile{toc}{\contentsline {paragraph}{Reused parts}{1}}
\@writefile{toc}{\contentsline {paragraph}{Added parts}{1}}
\@writefile{toc}{\contentsline {paragraph}{PROBE Method A}{1}}
\@writefile{toc}{\contentsline {paragraph}{PROBE Method B}{1}}
\@writefile{toc}{\contentsline {paragraph}{PROBE Method C}{1}}
\@writefile{toc}{\contentsline {paragraph}{PROBE Method D}{1}}
\@writefile{toc}{\contentsline {paragraph}{Linear Regression}{1}}
\@writefile{toc}{\contentsline {paragraph}{Correlation Coefficient R}{1}}
\@writefile{toc}{\contentsline {paragraph}{Correlation Coefficient R*R}{2}}
