\contentsline {section}{\numberline {1}T\IeC {\'e}rminos}{1}
\contentsline {paragraph}{PSP 2.0}{1}
\contentsline {paragraph}{Design Review Checklist}{1}
\contentsline {paragraph}{Code Review Checklist}{1}
\contentsline {paragraph}{To Date Calculations}{1}
