\relax 
\@writefile{toc}{\contentsline {section}{\numberline {1}T\IeC {\'e}rminos}{1}}
\@writefile{toc}{\contentsline {paragraph}{PSP 2.0}{1}}
\@writefile{toc}{\contentsline {paragraph}{Design Review Checklist}{1}}
\@writefile{toc}{\contentsline {paragraph}{Code Review Checklist}{1}}
\@writefile{toc}{\contentsline {paragraph}{To Date Calculations}{1}}
