\relax 
\@writefile{toc}{\contentsline {section}{\numberline {1}T\IeC {\'e}rminos}{1}}
\@writefile{toc}{\contentsline {paragraph}{Relative Size Table}{1}}
\@writefile{toc}{\contentsline {paragraph}{Mean Time}{1}}
\@writefile{toc}{\contentsline {paragraph}{CPI Value}{1}}
\@writefile{toc}{\contentsline {paragraph}{Source Program Listing}{1}}
