\contentsline {section}{\numberline {1}T\IeC {\'e}rminos}{1}
\contentsline {paragraph}{Relative Size Table}{1}
\contentsline {paragraph}{Mean Time}{1}
\contentsline {paragraph}{CPI Value}{1}
\contentsline {paragraph}{Source Program Listing}{1}
